{
    "created_at": "2022-12-29T12:09:23.968202693Z",
    "db_name": "sdc-bugliano_dev",
    "id": "58dded3f-54e7-48ed-a021-3b0181cf39a3",
	"name": "SDC Bugliano Dev",
    "identifier": "opencitycalci",
    "is_active": true,
    "stack": "bit4id-prod",
    "description": "",
    "owner": "bit4id",
    "temporary_url": "https://servizi.comune.bugliano.pi.it",
    "production_url": "https://www2.stanzadelcittadino.it/comune-di-bugliano",
	"version": 1
}
